{
  "annotations": {
    "list": [
      {
        "builtIn": 1,
        "datasource": {
          "type": "grafana",
          "uid": "-- Grafana --"
        },
        "enable": true,
        "hide": true,
        "iconColor": "rgba(0, 211, 255, 1)",
        "name": "Annotations & Alerts",
        "target": {
          "limit": 100,
          "matchAny": false,
          "tags": [],
          "type": "dashboard"
        },
        "type": "dashboard"
      }
    ]
  },
  "description": "Official dashboard for Standalone Traefik",
  "editable": true,
  "fiscalYearStartMonth": 0,
  "gnetId": 17346,
  "graphTooltip": 0,
  "id": 7,
  "links": [],
  "liveNow": false,
  "panels": [
    {
      "collapsed": false,
      "gridPos": {
        "h": 1,
        "w": 24,
        "x": 0,
        "y": 0
      },
      "id": 9,
      "panels": [],
      "title": "General",
      "type": "row"
    },
    {
      "datasource": {
        "type": "prometheus",
        "uid": "VictoriaMetrics"
      },
      "description": "",
      "fieldConfig": {
        "defaults": {
          "color": {
            "mode": "thresholds"
          },
          "mappings": [],
          "thresholds": {
            "mode": "absolute",
            "steps": [
              {
                "color": "green",
                "value": null
              },
              {
                "color": "red",
                "value": 80
              }
            ]
          }
        },
        "overrides": []
      },
      "gridPos": {
        "h": 2,
        "w": 5,
        "x": 0,
        "y": 1
      },
      "id": 13,
      "options": {
        "colorMode": "value",
        "graphMode": "area",
        "justifyMode": "auto",
        "orientation": "auto",
        "reduceOptions": {
          "calcs": [
            "lastNotNull"
          ],
          "fields": "",
          "values": false
        },
        "showPercentChange": false,
        "textMode": "auto",
        "wideLayout": true
      },
      "pluginVersion": "10.4.1",
      "targets": [
        {
          "datasource": {
            "type": "prometheus",
            "uid": "VictoriaMetrics"
          },
          "editorMode": "code",
          "expr": "count(traefik_config_reloads_total)",
          "legendFormat": "__auto",
          "range": true,
          "refId": "A"
        }
      ],
      "title": "Traefik Instances",
      "type": "stat"
    },
    {
      "datasource": {
        "type": "prometheus",
        "uid": "VictoriaMetrics"
      },
      "description": "",
      "fieldConfig": {
        "defaults": {
          "color": {
            "mode": "palette-classic"
          },
          "custom": {
            "axisBorderShow": false,
            "axisCenteredZero": false,
            "axisColorMode": "text",
            "axisLabel": "",
            "axisPlacement": "auto",
            "barAlignment": 0,
            "drawStyle": "line",
            "fillOpacity": 0,
            "gradientMode": "none",
            "hideFrom": {
              "legend": false,
              "tooltip": false,
              "viz": false
            },
            "insertNulls": false,
            "lineInterpolation": "linear",
            "lineWidth": 1,
            "pointSize": 5,
            "scaleDistribution": {
              "type": "linear"
            },
            "showPoints": "auto",
            "spanNulls": false,
            "stacking": {
              "group": "A",
              "mode": "none"
            },
            "thresholdsStyle": {
              "mode": "off"
            }
          },
          "mappings": [],
          "thresholds": {
            "mode": "absolute",
            "steps": [
              {
                "color": "green",
                "value": null
              },
              {
                "color": "red",
                "value": 80
              }
            ]
          },
          "unit": "reqps"
        },
        "overrides": []
      },
      "gridPos": {
        "h": 8,
        "w": 7,
        "x": 5,
        "y": 1
      },
      "id": 7,
      "options": {
        "legend": {
          "calcs": [
            "mean",
            "max"
          ],
          "displayMode": "table",
          "placement": "bottom",
          "showLegend": true,
          "sortBy": "Max",
          "sortDesc": true
        },
        "tooltip": {
          "mode": "multi",
          "sort": "desc"
        }
      },
      "targets": [
        {
          "datasource": {
            "type": "prometheus",
            "uid": "VictoriaMetrics"
          },
          "editorMode": "code",
          "expr": "sum(rate(traefik_entrypoint_requests_total{entrypoint=~\"$entrypoint\"}[1m])) by (entrypoint)",
          "legendFormat": "{{entrypoint}}",
          "range": true,
          "refId": "A"
        }
      ],
      "title": "Requests per Entrypoint",
      "type": "timeseries"
    },
    {
      "datasource": {
        "type": "prometheus",
        "uid": "VictoriaMetrics"
      },
      "description": "https://medium.com/@tristan_96324/prometheus-apdex-alerting-d17a065e39d0",
      "fieldConfig": {
        "defaults": {
          "color": {
            "mode": "palette-classic"
          },
          "custom": {
            "axisBorderShow": false,
            "axisCenteredZero": false,
            "axisColorMode": "text",
            "axisLabel": "",
            "axisPlacement": "auto",
            "barAlignment": 0,
            "drawStyle": "line",
            "fillOpacity": 0,
            "gradientMode": "none",
            "hideFrom": {
              "legend": false,
              "tooltip": false,
              "viz": false
            },
            "insertNulls": false,
            "lineInterpolation": "linear",
            "lineWidth": 1,
            "pointSize": 5,
            "scaleDistribution": {
              "type": "linear"
            },
            "showPoints": "auto",
            "spanNulls": false,
            "stacking": {
              "group": "A",
              "mode": "none"
            },
            "thresholdsStyle": {
              "mode": "off"
            }
          },
          "mappings": [],
          "thresholds": {
            "mode": "absolute",
            "steps": [
              {
                "color": "green",
                "value": null
              },
              {
                "color": "red",
                "value": 80
              }
            ]
          }
        },
        "overrides": []
      },
      "gridPos": {
        "h": 8,
        "w": 12,
        "x": 12,
        "y": 1
      },
      "id": 6,
      "options": {
        "legend": {
          "calcs": [
            "mean",
            "max"
          ],
          "displayMode": "table",
          "placement": "bottom",
          "showLegend": true,
          "sortBy": "Max",
          "sortDesc": true
        },
        "tooltip": {
          "mode": "multi",
          "sort": "desc"
        }
      },
      "targets": [
        {
          "datasource": {
            "type": "prometheus",
            "uid": "VictoriaMetrics"
          },
          "editorMode": "code",
          "expr": "(sum(rate(traefik_entrypoint_request_duration_seconds_bucket{le=\"0.3\",code=\"200\",entrypoint=~\"$entrypoint\"}[5m])) by (method) + \n sum(rate(traefik_entrypoint_request_duration_seconds_bucket{le=\"1.2\",code=\"200\",entrypoint=~\"$entrypoint\"}[5m])) by (method)) / 2 / \n sum(rate(traefik_entrypoint_request_duration_seconds_count{code=\"200\",entrypoint=~\"$entrypoint\"}[5m])) by (method)\n",
          "legendFormat": "{{method}}",
          "range": true,
          "refId": "A"
        }
      ],
      "title": "Apdex score",
      "type": "timeseries"
    },
    {
      "datasource": {
        "type": "prometheus",
        "uid": "VictoriaMetrics"
      },
      "description": "Mean Distribution",
      "fieldConfig": {
        "defaults": {
          "color": {
            "mode": "palette-classic"
          },
          "custom": {
            "hideFrom": {
              "legend": false,
              "tooltip": false,
              "viz": false
            }
          },
          "mappings": [],
          "unit": "reqps"
        },
        "overrides": []
      },
      "gridPos": {
        "h": 6,
        "w": 5,
        "x": 0,
        "y": 3
      },
      "id": 14,
      "options": {
        "legend": {
          "displayMode": "list",
          "placement": "right",
          "showLegend": true,
          "values": [
            "percent"
          ]
        },
        "pieType": "pie",
        "reduceOptions": {
          "calcs": [
            "mean"
          ],
          "fields": "",
          "values": false
        },
        "tooltip": {
          "mode": "multi",
          "sort": "asc"
        }
      },
      "targets": [
        {
          "datasource": {
            "type": "prometheus",
            "uid": "VictoriaMetrics"
          },
          "editorMode": "code",
          "expr": "sum(rate(traefik_service_requests_total{service=~\"$service.*\",protocol=\"http\"}[1m])) by (method, code)",
          "legendFormat": "{{method}}[{{code}}]",
          "range": true,
          "refId": "A"
        }
      ],
      "title": "Http Code ",
      "type": "piechart"
    },
    {
      "datasource": {
        "type": "prometheus",
        "uid": "VictoriaMetrics"
      },
      "description": "",
      "fieldConfig": {
        "defaults": {
          "color": {
            "mode": "palette-classic"
          },
          "custom": {
            "axisBorderShow": false,
            "axisCenteredZero": false,
            "axisColorMode": "text",
            "axisLabel": "",
            "axisPlacement": "auto",
            "barAlignment": 0,
            "drawStyle": "line",
            "fillOpacity": 0,
            "gradientMode": "none",
            "hideFrom": {
              "legend": false,
              "tooltip": false,
              "viz": false
            },
            "insertNulls": false,
            "lineInterpolation": "linear",
            "lineWidth": 1,
            "pointSize": 5,
            "scaleDistribution": {
              "type": "linear"
            },
            "showPoints": "auto",
            "spanNulls": false,
            "stacking": {
              "group": "A",
              "mode": "none"
            },
            "thresholdsStyle": {
              "mode": "off"
            }
          },
          "mappings": [],
          "thresholds": {
            "mode": "absolute",
            "steps": [
              {
                "color": "green",
                "value": null
              },
              {
                "color": "red",
                "value": 80
              }
            ]
          },
          "unit": "s"
        },
        "overrides": []
      },
      "gridPos": {
        "h": 8,
        "w": 12,
        "x": 0,
        "y": 9
      },
      "id": 23,
      "options": {
        "legend": {
          "calcs": [
            "mean",
            "max"
          ],
          "displayMode": "table",
          "placement": "right",
          "showLegend": true,
          "sortBy": "Mean",
          "sortDesc": true
        },
        "tooltip": {
          "mode": "multi",
          "sort": "desc"
        }
      },
      "targets": [
        {
          "datasource": {
            "type": "prometheus",
            "uid": "VictoriaMetrics"
          },
          "editorMode": "code",
          "expr": "topk(15,\n    label_replace(\n        traefik_service_request_duration_seconds_sum{service=~\"$service.*\",protocol=\"http\"} / \n          traefik_service_request_duration_seconds_count{service=~\"$service.*\",protocol=\"http\"},\n        \"service\", \"$1\", \"service\", \"([^-]+-[^-]+).*\")\n)\n\n",
          "legendFormat": "{{method}}[{{code}}] on {{service}}",
          "range": true,
          "refId": "A"
        }
      ],
      "title": "Top slow services",
      "type": "timeseries"
    },
    {
      "datasource": {
        "type": "prometheus",
        "uid": "VictoriaMetrics"
      },
      "description": "",
      "fieldConfig": {
        "defaults": {
          "color": {
            "mode": "palette-classic"
          },
          "custom": {
            "axisBorderShow": false,
            "axisCenteredZero": false,
            "axisColorMode": "text",
            "axisLabel": "",
            "axisPlacement": "auto",
            "barAlignment": 0,
            "drawStyle": "line",
            "fillOpacity": 0,
            "gradientMode": "none",
            "hideFrom": {
              "legend": false,
              "tooltip": false,
              "viz": false
            },
            "insertNulls": false,
            "lineInterpolation": "linear",
            "lineWidth": 1,
            "pointSize": 5,
            "scaleDistribution": {
              "type": "linear"
            },
            "showPoints": "auto",
            "spanNulls": false,
            "stacking": {
              "group": "A",
              "mode": "none"
            },
            "thresholdsStyle": {
              "mode": "off"
            }
          },
          "mappings": [],
          "thresholds": {
            "mode": "absolute",
            "steps": [
              {
                "color": "green",
                "value": null
              },
              {
                "color": "red",
                "value": 80
              }
            ]
          },
          "unit": "reqps"
        },
        "overrides": []
      },
      "gridPos": {
        "h": 8,
        "w": 12,
        "x": 12,
        "y": 9
      },
      "id": 5,
      "options": {
        "legend": {
          "calcs": [
            "mean",
            "max"
          ],
          "displayMode": "table",
          "placement": "right",
          "showLegend": true,
          "sortBy": "Mean",
          "sortDesc": true
        },
        "tooltip": {
          "mode": "multi",
          "sort": "desc"
        }
      },
      "targets": [
        {
          "datasource": {
            "type": "prometheus",
            "uid": "VictoriaMetrics"
          },
          "editorMode": "code",
          "expr": "topk(15,\n    label_replace(\n        sum by (service,code) \n          (rate(traefik_service_requests_total{service=~\"$service.*\",protocol=\"http\"}[5m])) > 0,\n        \"service\", \"$1\", \"service\", \"([^-]+-[^-]+).*\")\n)",
          "legendFormat": "[{{code}}] on {{service}}",
          "range": true,
          "refId": "A"
        }
      ],
      "title": "Most requested services",
      "type": "timeseries"
    },
    {
      "collapsed": true,
      "gridPos": {
        "h": 1,
        "w": 24,
        "x": 0,
        "y": 17
      },
      "id": 16,
      "panels": [
        {
          "datasource": {
            "type": "prometheus",
            "uid": "VictoriaMetrics"
          },
          "description": "",
          "fieldConfig": {
            "defaults": {
              "color": {
                "mode": "palette-classic"
              },
              "custom": {
                "axisCenteredZero": false,
                "axisColorMode": "text",
                "axisLabel": "",
                "axisPlacement": "auto",
                "barAlignment": 0,
                "drawStyle": "line",
                "fillOpacity": 0,
                "gradientMode": "none",
                "hideFrom": {
                  "legend": false,
                  "tooltip": false,
                  "viz": false
                },
                "lineInterpolation": "linear",
                "lineWidth": 1,
                "pointSize": 5,
                "scaleDistribution": {
                  "type": "linear"
                },
                "showPoints": "auto",
                "spanNulls": false,
                "stacking": {
                  "group": "A",
                  "mode": "none"
                },
                "thresholdsStyle": {
                  "mode": "off"
                }
              },
              "mappings": [],
              "thresholds": {
                "mode": "absolute",
                "steps": [
                  {
                    "color": "green"
                  },
                  {
                    "color": "red",
                    "value": 80
                  }
                ]
              },
              "unit": "reqps"
            },
            "overrides": []
          },
          "gridPos": {
            "h": 12,
            "w": 8,
            "x": 0,
            "y": 27
          },
          "id": 17,
          "options": {
            "legend": {
              "calcs": [
                "mean",
                "max"
              ],
              "displayMode": "table",
              "placement": "bottom",
              "showLegend": true,
              "sortBy": "Mean",
              "sortDesc": true
            },
            "tooltip": {
              "mode": "multi",
              "sort": "desc"
            }
          },
          "targets": [
            {
              "datasource": {
                "type": "prometheus",
                "uid": "VictoriaMetrics"
              },
              "editorMode": "code",
              "expr": "topk(15,\n    label_replace(\n        sum by (service,method,code) \n          (rate(traefik_service_requests_total{service=~\"$service.*\",code=~\"2..\",protocol=\"http\"}[5m])) > 0,\n        \"service\", \"$1\", \"service\", \"([^-]+-[^-]+).*\")\n)",
              "legendFormat": "{{method}}[{{code}}] on {{service}}",
              "range": true,
              "refId": "A"
            }
          ],
          "title": "2xx over 5 min",
          "type": "timeseries"
        },
        {
          "datasource": {
            "type": "prometheus",
            "uid": "VictoriaMetrics"
          },
          "description": "",
          "fieldConfig": {
            "defaults": {
              "color": {
                "mode": "palette-classic"
              },
              "custom": {
                "axisCenteredZero": false,
                "axisColorMode": "text",
                "axisGridShow": true,
                "axisLabel": "",
                "axisPlacement": "auto",
                "barAlignment": 0,
                "drawStyle": "line",
                "fillOpacity": 0,
                "gradientMode": "none",
                "hideFrom": {
                  "legend": false,
                  "tooltip": false,
                  "viz": false
                },
                "lineInterpolation": "linear",
                "lineWidth": 1,
                "pointSize": 5,
                "scaleDistribution": {
                  "type": "linear"
                },
                "showPoints": "auto",
                "spanNulls": false,
                "stacking": {
                  "group": "A",
                  "mode": "none"
                },
                "thresholdsStyle": {
                  "mode": "off"
                }
              },
              "mappings": [],
              "thresholds": {
                "mode": "absolute",
                "steps": [
                  {
                    "color": "green"
                  },
                  {
                    "color": "red",
                    "value": 80
                  }
                ]
              },
              "unit": "reqps"
            },
            "overrides": []
          },
          "gridPos": {
            "h": 12,
            "w": 8,
            "x": 8,
            "y": 27
          },
          "id": 18,
          "options": {
            "legend": {
              "calcs": [
                "mean",
                "max"
              ],
              "displayMode": "table",
              "placement": "bottom",
              "showLegend": true,
              "sortBy": "Mean",
              "sortDesc": true
            },
            "tooltip": {
              "mode": "multi",
              "sort": "desc"
            }
          },
          "targets": [
            {
              "datasource": {
                "type": "prometheus",
                "uid": "VictoriaMetrics"
              },
              "editorMode": "code",
              "expr": "topk(15,\n    label_replace(\n        sum by (service,method,code) \n          (rate(traefik_service_requests_total{service=~\"$service.*\",code=~\"5..\",protocol=\"http\"}[5m])) > 0,\n        \"service\", \"$1\", \"service\", \"([^-]+-[^-]+).*\")\n)",
              "legendFormat": "{{method}}[{{code}}] on {{service}}",
              "range": true,
              "refId": "A"
            }
          ],
          "title": "5xx over 5 min",
          "type": "timeseries"
        },
        {
          "datasource": {
            "type": "prometheus",
            "uid": "VictoriaMetrics"
          },
          "description": "",
          "fieldConfig": {
            "defaults": {
              "color": {
                "mode": "palette-classic"
              },
              "custom": {
                "axisCenteredZero": false,
                "axisColorMode": "text",
                "axisGridShow": true,
                "axisLabel": "",
                "axisPlacement": "auto",
                "barAlignment": 0,
                "drawStyle": "line",
                "fillOpacity": 0,
                "gradientMode": "none",
                "hideFrom": {
                  "legend": false,
                  "tooltip": false,
                  "viz": false
                },
                "lineInterpolation": "linear",
                "lineWidth": 1,
                "pointSize": 5,
                "scaleDistribution": {
                  "type": "linear"
                },
                "showPoints": "auto",
                "spanNulls": false,
                "stacking": {
                  "group": "A",
                  "mode": "none"
                },
                "thresholdsStyle": {
                  "mode": "off"
                }
              },
              "mappings": [],
              "thresholds": {
                "mode": "absolute",
                "steps": [
                  {
                    "color": "green"
                  },
                  {
                    "color": "red",
                    "value": 80
                  }
                ]
              },
              "unit": "reqps"
            },
            "overrides": []
          },
          "gridPos": {
            "h": 12,
            "w": 8,
            "x": 16,
            "y": 27
          },
          "id": 19,
          "options": {
            "legend": {
              "calcs": [
                "mean",
                "max"
              ],
              "displayMode": "table",
              "placement": "bottom",
              "showLegend": true,
              "sortBy": "Mean",
              "sortDesc": true
            },
            "tooltip": {
              "mode": "multi",
              "sort": "desc"
            }
          },
          "targets": [
            {
              "datasource": {
                "type": "prometheus",
                "uid": "VictoriaMetrics"
              },
              "editorMode": "code",
              "expr": "topk(15,\n    label_replace(\n        sum by (service,method,code) \n          (rate(traefik_service_requests_total{service=~\"$service.*\",code!~\"2..|5..\",protocol=\"http\"}[5m])) > 0,\n        \"service\", \"$1\", \"service\", \"([^-]+-[^-]+).*\")\n)",
              "legendFormat": "{{method}}[{{code}}] on {{service}}",
              "range": true,
              "refId": "A"
            }
          ],
          "title": "Other codes over 5 min",
          "type": "timeseries"
        },
        {
          "datasource": {
            "type": "prometheus",
            "uid": "VictoriaMetrics"
          },
          "description": "",
          "fieldConfig": {
            "defaults": {
              "color": {
                "mode": "palette-classic"
              },
              "custom": {
                "axisCenteredZero": false,
                "axisColorMode": "text",
                "axisGridShow": true,
                "axisLabel": "",
                "axisPlacement": "auto",
                "barAlignment": 0,
                "drawStyle": "line",
                "fillOpacity": 0,
                "gradientMode": "none",
                "hideFrom": {
                  "legend": false,
                  "tooltip": false,
                  "viz": false
                },
                "lineInterpolation": "linear",
                "lineWidth": 1,
                "pointSize": 5,
                "scaleDistribution": {
                  "type": "linear"
                },
                "showPoints": "auto",
                "spanNulls": false,
                "stacking": {
                  "group": "A",
                  "mode": "none"
                },
                "thresholdsStyle": {
                  "mode": "off"
                }
              },
              "mappings": [],
              "thresholds": {
                "mode": "absolute",
                "steps": [
                  {
                    "color": "green"
                  },
                  {
                    "color": "red",
                    "value": 80
                  }
                ]
              },
              "unit": "binBps"
            },
            "overrides": []
          },
          "gridPos": {
            "h": 8,
            "w": 12,
            "x": 0,
            "y": 39
          },
          "id": 20,
          "options": {
            "legend": {
              "calcs": [
                "mean",
                "max"
              ],
              "displayMode": "table",
              "placement": "right",
              "showLegend": true,
              "sortBy": "Mean",
              "sortDesc": true
            },
            "tooltip": {
              "mode": "multi",
              "sort": "desc"
            }
          },
          "targets": [
            {
              "datasource": {
                "type": "prometheus",
                "uid": "VictoriaMetrics"
              },
              "editorMode": "code",
              "expr": "topk(15,\n    label_replace(\n        sum by (service,method) \n          (rate(traefik_service_requests_bytes_total{service=~\"$service.*\",protocol=\"http\"}[1m])) > 0,\n        \"service\", \"$1\", \"service\", \"([^-]+-[^-]+).*\")\n)",
              "legendFormat": "{{method}} on {{service}}",
              "range": true,
              "refId": "A"
            }
          ],
          "title": "Requests Size",
          "type": "timeseries"
        },
        {
          "datasource": {
            "type": "prometheus",
            "uid": "VictoriaMetrics"
          },
          "description": "",
          "fieldConfig": {
            "defaults": {
              "color": {
                "mode": "palette-classic"
              },
              "custom": {
                "axisCenteredZero": false,
                "axisColorMode": "text",
                "axisGridShow": true,
                "axisLabel": "",
                "axisPlacement": "auto",
                "barAlignment": 0,
                "drawStyle": "line",
                "fillOpacity": 0,
                "gradientMode": "none",
                "hideFrom": {
                  "legend": false,
                  "tooltip": false,
                  "viz": false
                },
                "lineInterpolation": "linear",
                "lineWidth": 1,
                "pointSize": 5,
                "scaleDistribution": {
                  "type": "linear"
                },
                "showPoints": "auto",
                "spanNulls": false,
                "stacking": {
                  "group": "A",
                  "mode": "none"
                },
                "thresholdsStyle": {
                  "mode": "off"
                }
              },
              "mappings": [],
              "thresholds": {
                "mode": "absolute",
                "steps": [
                  {
                    "color": "green"
                  },
                  {
                    "color": "red",
                    "value": 80
                  }
                ]
              },
              "unit": "binBps"
            },
            "overrides": []
          },
          "gridPos": {
            "h": 8,
            "w": 12,
            "x": 12,
            "y": 39
          },
          "id": 24,
          "options": {
            "legend": {
              "calcs": [
                "mean",
                "max"
              ],
              "displayMode": "table",
              "placement": "right",
              "showLegend": true,
              "sortBy": "Mean",
              "sortDesc": true
            },
            "tooltip": {
              "mode": "multi",
              "sort": "desc"
            }
          },
          "targets": [
            {
              "datasource": {
                "type": "prometheus",
                "uid": "VictoriaMetrics"
              },
              "editorMode": "code",
              "expr": "topk(15,\n    label_replace(\n        sum by (service,method) \n          (rate(traefik_service_responses_bytes_total{service=~\"$service.*\",protocol=\"http\"}[1m])) > 0,\n        \"service\", \"$1\", \"service\", \"([^-]+-[^-]+).*\")\n)",
              "legendFormat": "{{method}} on {{service}}",
              "range": true,
              "refId": "A"
            }
          ],
          "title": "Responses Size",
          "type": "timeseries"
        },
        {
          "datasource": {
            "type": "prometheus",
            "uid": "VictoriaMetrics"
          },
          "description": "",
          "fieldConfig": {
            "defaults": {
              "color": {
                "mode": "palette-classic"
              },
              "custom": {
                "axisCenteredZero": false,
                "axisColorMode": "text",
                "axisLabel": "",
                "axisPlacement": "auto",
                "barAlignment": 0,
                "drawStyle": "line",
                "fillOpacity": 0,
                "gradientMode": "none",
                "hideFrom": {
                  "legend": false,
                  "tooltip": false,
                  "viz": false
                },
                "lineInterpolation": "linear",
                "lineWidth": 1,
                "pointSize": 5,
                "scaleDistribution": {
                  "type": "linear"
                },
                "showPoints": "auto",
                "spanNulls": false,
                "stacking": {
                  "group": "A",
                  "mode": "none"
                },
                "thresholdsStyle": {
                  "mode": "off"
                }
              },
              "mappings": [],
              "thresholds": {
                "mode": "absolute",
                "steps": [
                  {
                    "color": "green"
                  },
                  {
                    "color": "red",
                    "value": 80
                  }
                ]
              },
              "unit": "short"
            },
            "overrides": []
          },
          "gridPos": {
            "h": 8,
            "w": 12,
            "x": 0,
            "y": 47
          },
          "id": 2,
          "options": {
            "legend": {
              "calcs": [
                "mean",
                "max"
              ],
              "displayMode": "table",
              "placement": "right",
              "showLegend": true,
              "sortBy": "Max",
              "sortDesc": true
            },
            "tooltip": {
              "mode": "multi",
              "sort": "desc"
            }
          },
          "targets": [
            {
              "datasource": {
                "type": "prometheus",
                "uid": "VictoriaMetrics"
              },
              "editorMode": "code",
              "expr": "label_replace(\n    sum(traefik_service_open_connections{service=~\"$service.*\"}) by (service),\n    \"service\", \"$1\", \"service\", \"([^-]+-[^-]+).*\")",
              "legendFormat": "{{service}}",
              "range": true,
              "refId": "A"
            }
          ],
          "title": "Connections per Service",
          "type": "timeseries"
        },
        {
          "datasource": {
            "type": "prometheus",
            "uid": "VictoriaMetrics"
          },
          "description": "",
          "fieldConfig": {
            "defaults": {
              "color": {
                "mode": "palette-classic"
              },
              "custom": {
                "axisCenteredZero": false,
                "axisColorMode": "text",
                "axisLabel": "",
                "axisPlacement": "auto",
                "barAlignment": 0,
                "drawStyle": "line",
                "fillOpacity": 0,
                "gradientMode": "none",
                "hideFrom": {
                  "legend": false,
                  "tooltip": false,
                  "viz": false
                },
                "lineInterpolation": "linear",
                "lineWidth": 1,
                "pointSize": 5,
                "scaleDistribution": {
                  "type": "linear"
                },
                "showPoints": "auto",
                "spanNulls": false,
                "stacking": {
                  "group": "A",
                  "mode": "none"
                },
                "thresholdsStyle": {
                  "mode": "off"
                }
              },
              "mappings": [],
              "thresholds": {
                "mode": "absolute",
                "steps": [
                  {
                    "color": "green"
                  },
                  {
                    "color": "red",
                    "value": 80
                  }
                ]
              },
              "unit": "short"
            },
            "overrides": []
          },
          "gridPos": {
            "h": 8,
            "w": 12,
            "x": 12,
            "y": 47
          },
          "id": 21,
          "options": {
            "legend": {
              "calcs": [
                "mean",
                "max"
              ],
              "displayMode": "table",
              "placement": "right",
              "showLegend": true,
              "sortBy": "Max",
              "sortDesc": true
            },
            "tooltip": {
              "mode": "multi",
              "sort": "desc"
            }
          },
          "targets": [
            {
              "datasource": {
                "type": "prometheus",
                "uid": "VictoriaMetrics"
              },
              "editorMode": "code",
              "expr": "sum(traefik_entrypoint_open_connections{entrypoint=~\"$entrypoint\"}) by (entrypoint)\n",
              "legendFormat": "{{entrypoint}}",
              "range": true,
              "refId": "A"
            }
          ],
          "title": "Connections per Entrypoint",
          "type": "timeseries"
        }
      ],
      "title": "HTTP Details",
      "type": "row"
    },
    {
      "collapsed": true,
      "gridPos": {
        "h": 1,
        "w": 24,
        "x": 0,
        "y": 18
      },
      "id": 11,
      "panels": [
        {
          "datasource": {
            "type": "prometheus",
            "uid": "VictoriaMetrics"
          },
          "description": "",
          "fieldConfig": {
            "defaults": {
              "color": {
                "mode": "palette-classic"
              },
              "custom": {
                "axisCenteredZero": false,
                "axisColorMode": "text",
                "axisLabel": "",
                "axisPlacement": "auto",
                "barAlignment": 0,
                "drawStyle": "line",
                "fillOpacity": 0,
                "gradientMode": "none",
                "hideFrom": {
                  "legend": false,
                  "tooltip": false,
                  "viz": false
                },
                "lineInterpolation": "linear",
                "lineWidth": 1,
                "pointSize": 5,
                "scaleDistribution": {
                  "type": "linear"
                },
                "showPoints": "auto",
                "spanNulls": false,
                "stacking": {
                  "group": "A",
                  "mode": "none"
                },
                "thresholdsStyle": {
                  "mode": "off"
                }
              },
              "mappings": [],
              "thresholds": {
                "mode": "absolute",
                "steps": [
                  {
                    "color": "green"
                  }
                ]
              },
              "unit": "percentunit"
            },
            "overrides": []
          },
          "gridPos": {
            "h": 8,
            "w": 12,
            "x": 0,
            "y": 26
          },
          "id": 3,
          "options": {
            "legend": {
              "calcs": [
                "mean",
                "max"
              ],
              "displayMode": "table",
              "placement": "right",
              "showLegend": true,
              "sortBy": "Max",
              "sortDesc": true
            },
            "tooltip": {
              "mode": "multi",
              "sort": "desc"
            }
          },
          "targets": [
            {
              "datasource": {
                "type": "prometheus",
                "uid": "VictoriaMetrics"
              },
              "editorMode": "code",
              "expr": "label_replace(\n  1 - (sum by (service)\n    (rate(traefik_service_request_duration_seconds_bucket{le=\"1.2\",service=~\"$service.*\"}[5m])) / sum by (service) \n    (rate(traefik_service_request_duration_seconds_count{service=~\"$service.*\"}[5m]))\n  ) > 0,\n  \"service\", \"$1\", \"service\", \"([^-]+-[^-]+).*\"\n)",
              "legendFormat": "{{service}}",
              "range": true,
              "refId": "A"
            }
          ],
          "title": "Services failing SLO of 1200ms",
          "type": "timeseries"
        },
        {
          "datasource": {
            "type": "prometheus",
            "uid": "VictoriaMetrics"
          },
          "description": "",
          "fieldConfig": {
            "defaults": {
              "color": {
                "mode": "palette-classic"
              },
              "custom": {
                "axisCenteredZero": false,
                "axisColorMode": "text",
                "axisLabel": "",
                "axisPlacement": "auto",
                "barAlignment": 0,
                "drawStyle": "line",
                "fillOpacity": 0,
                "gradientMode": "none",
                "hideFrom": {
                  "legend": false,
                  "tooltip": false,
                  "viz": false
                },
                "lineInterpolation": "linear",
                "lineWidth": 1,
                "pointSize": 5,
                "scaleDistribution": {
                  "type": "linear"
                },
                "showPoints": "auto",
                "spanNulls": false,
                "stacking": {
                  "group": "A",
                  "mode": "none"
                },
                "thresholdsStyle": {
                  "mode": "off"
                }
              },
              "mappings": [],
              "thresholds": {
                "mode": "absolute",
                "steps": [
                  {
                    "color": "green"
                  }
                ]
              },
              "unit": "percentunit"
            },
            "overrides": []
          },
          "gridPos": {
            "h": 8,
            "w": 12,
            "x": 12,
            "y": 26
          },
          "id": 4,
          "options": {
            "legend": {
              "calcs": [
                "mean",
                "max"
              ],
              "displayMode": "table",
              "placement": "right",
              "showLegend": true,
              "sortBy": "Max",
              "sortDesc": true
            },
            "tooltip": {
              "mode": "multi",
              "sort": "desc"
            }
          },
          "targets": [
            {
              "datasource": {
                "type": "prometheus",
                "uid": "VictoriaMetrics"
              },
              "editorMode": "code",
              "expr": "label_replace(\n  1 - (sum by (service)\n    (rate(traefik_service_request_duration_seconds_bucket{le=\"0.3\",service=~\"$service.*\"}[5m])) / sum by (service) \n    (rate(traefik_service_request_duration_seconds_count{service=~\"$service.*\"}[5m]))\n  ) > 0,\n  \"service\", \"$1\", \"service\", \"([^-]+-[^-]+).*\"\n)",
              "legendFormat": "{{service}}",
              "range": true,
              "refId": "A"
            }
          ],
          "title": "Services failing SLO of 300ms",
          "type": "timeseries"
        }
      ],
      "title": "SLO",
      "type": "row"
    },
    {
      "datasource": {
        "type": "loki",
        "uid": "Loki"
      },
      "gridPos": {
        "h": 15,
        "w": 24,
        "x": 0,
        "y": 19
      },
      "id": 25,
      "options": {
        "dedupStrategy": "none",
        "enableLogDetails": true,
        "prettifyLogMessage": true,
        "showCommonLabels": false,
        "showLabels": false,
        "showTime": false,
        "sortOrder": "Descending",
        "wrapLogMessage": true
      },
      "targets": [
        {
          "datasource": {
            "type": "loki",
            "uid": "Loki"
          },
          "editorMode": "builder",
          "expr": "{instance=\"traefik1\", type=\"traefik_access\"} |= `` | json | entryPointName = `https` | line_format `{{ .time }} / {{ .DownstreamStatus }} / {{ .RequestHost }} / {{ .ClientAddr }} / {{ .TLSVersion }} / {{ .RequestMethod }} / {{ .RequestProtocol }} / {{ .RequestPath }}`",
          "queryType": "range",
          "refId": "A"
        }
      ],
      "title": "Logs",
      "transparent": true,
      "type": "logs"
    }
  ],
  "refresh": false,
  "schemaVersion": 39,
  "tags": [],
  "templating": {
    "list": [
      {
        "current": {
          "selected": false,
          "text": "VictoriaMetrics",
          "value": "ddhxkkr91u680a"
        },
        "hide": 0,
        "includeAll": false,
        "label": "datasource",
        "multi": false,
        "name": "DS_PROMETHEUS",
        "options": [],
        "query": "prometheus",
        "refresh": 1,
        "regex": "",
        "skipUrlSync": false,
        "type": "datasource"
      },
      {
        "current": {
          "selected": false,
          "text": "All",
          "value": "$__all"
        },
        "datasource": {
          "type": "prometheus",
          "uid": "VictoriaMetrics"
        },
        "definition": "label_values(traefik_entrypoint_open_connections, entrypoint)",
        "hide": 0,
        "includeAll": true,
        "multi": false,
        "name": "entrypoint",
        "options": [],
        "query": {
          "query": "label_values(traefik_entrypoint_open_connections, entrypoint)",
          "refId": "StandardVariableQuery"
        },
        "refresh": 1,
        "regex": "",
        "skipUrlSync": false,
        "sort": 0,
        "type": "query"
      },
      {
        "current": {
          "selected": false,
          "text": "All",
          "value": "$__all"
        },
        "datasource": {
          "type": "prometheus",
          "uid": "VictoriaMetrics"
        },
        "definition": "label_values(traefik_service_open_connections, service)",
        "hide": 0,
        "includeAll": true,
        "multi": false,
        "name": "service",
        "options": [],
        "query": {
          "query": "label_values(traefik_service_open_connections, service)",
          "refId": "StandardVariableQuery"
        },
        "refresh": 2,
        "regex": "",
        "skipUrlSync": false,
        "sort": 1,
        "type": "query"
      }
    ]
  },
  "time": {
    "from": "now-6h",
    "to": "now"
  },
  "timepicker": {},
  "timezone": "",
  "title": "Traefik",
  "uid": "traefik",
  "version": 2,
  "weekStart": ""
}